\boolfalse {citerequest}\boolfalse {citetracker}\boolfalse {pagetracker}\boolfalse {backtracker}\relax 
\babel@toc {brazil}{}
\defcounter {refsection}{0}\relax 
\beamer@sectionintoc {1}{Números \& Construções}{2}{0}{1}
\defcounter {refsection}{0}\relax 
\beamer@sectionintoc {2}{Os Números Naturais}{22}{0}{2}
\defcounter {refsection}{0}\relax 
\beamer@sectionintoc {3}{Os Números Ordinais}{53}{0}{3}
\defcounter {refsection}{0}\relax 
\beamer@sectionintoc {4}{Os Números Serreais}{75}{0}{4}
